{
  "project_info": {
    "project_number": "372301514370",
    "firebase_url": "https://phoneauth-253aa.firebaseio.com",
    "project_id": "phoneauth-253aa",
    "storage_bucket": "phoneauth-253aa.appspot.com"
  },
  "client": [
    {
      "client_info": {
        "mobilesdk_app_id": "1:372301514370:android:7d93bfa71d5dc74c23969b",
        "android_client_info": {
          "package_name": "com.flutter1.custgcmapp"
        }
      },
      "oauth_client": [
        {
          "client_id": "372301514370-neqehkarp1ohg4qqfkks4vj4e2ek9qn7.apps.googleusercontent.com",
          "client_type": 1,
          "android_info": {
            "package_name": "com.flutter1.custgcmapp",
            "certificate_hash": "efc43dec86a98e20d575aa7df35adf2619e70a98"
          }
        },
        {
          "client_id": "372301514370-hth4vn4sblqqn7irlqntcd35gvmsqpq5.apps.googleusercontent.com",
          "client_type": 3
        }
      ],
      "api_key": [
        {
          "current_key": "AIzaSyDhQir_pECDDlhk2nn2learabute5W1c6w"
        }
      ],
      "services": {
        "appinvite_service": {
          "other_platform_oauth_client": [
            {
              "client_id": "372301514370-hth4vn4sblqqn7irlqntcd35gvmsqpq5.apps.googleusercontent.com",
              "client_type": 3
            }
          ]
        }
      }
    }
  ],
  "configuration_version": "1"
}